{
    "format": {
        "version": "1.0"
    },
    "shaders": {
        "Main shader": {
            "parameters": {
                "Common Parameters": {
                    "ao_intensity": 0.75,
                    "emissive_intensity": 1,
                    "height_force": 1,
                    "nbSamples": 16
                }
            },
            "shader": "pbr-metal-rough",
            "shaderInstance": "Main shader"
        }
    },
    "texturesets": {
        "mtl_bottle_01": {
            "shader": "Main shader"
        }
    }
}
