[
  {
    "id": 0,
    "title": "Gear1",
    "value": 6,
    "stackable": true, 
    "craftable": false,
    "description": "An item used to idk",
    "slug": "item_gear_1"  
  },

  {
    "id": 1,
    "title": "Gear2",
    "value": 10,
    "stackable": true,
    "craftable": false,
    "description": "An item used to open door",
    "slug": "item_gear_2"
  },

  {
    "id": 2,
    "title": "Gear3",
    "value": 10,
    "stackable": false,
    "craftable": true,
    "description": "A tool used to beat something",
    "slug": "item_gear_3"
  },

  {
    "id": 3,
    "title": "Gear4",
    "value": 10,
    "stackable": true,
    "craftable": true,
    "description": "An item used to splash",
    "slug": "item_gear_4"
  },

  {
    "id": 4,
    "title": "Paper1",
    "value": 10,
    "stackable": true,
    "craftable": true,
    "description": "An item used to splash",
    "slug": "item_paper_1"
  },

  {
    "id": 5,
    "title": "Paper2",
    "value": 10,
    "stackable": true,
    "craftable": true,
    "description": "An item used to put on puzzle",
    "slug": "item_paper_2"
  },

  {
    "id": 6,
    "title": "Paper3",
    "value": 10,
    "stackable": false,
    "craftable": false,
    "description": "An item used to see in the dark",
    "slug": "item_paper_3"
  },

  {
    "id": 7,
    "title": "Paper4",
    "value": 10,
    "stackable": false,
    "craftable": false,
    "description": "An item used to picklock",
    "slug": "item_paper_4"
  },

  {
    "id": 8,
    "title": "Paper5",
    "value": 10,
    "stackable": false,
    "craftable": false,
    "description": "An item used to picklock",
    "slug": "item_paper_5"
  }

]